5 Introduction to Rmarkdown | 3 Multivariate
…
the maximum value of the data is `r max(y)`

the maximum value of the data is `r round(max(y))`

Show some of the data

Let’s combine the data in a tibble (think of it as a data frame if you don’t
know what that is):

data <- tibble(x, y)
data

## # A tibble: 50 x 2
##        x     y
##    <int> <dbl>
##  1     1  23.7
##  2     2  14.4
##  3     3  33.6
##  4     4  46.3
##  5     5  54.0
##  6     6  58.9
##  7     7  85.1
##  8     8  79.1
##  9     9 110. 
## 10    10  99.4
## # … with 40 more rows
…
